…
 2 CJ_JAK2.fcs      pt2       JAK2      pt2              1
 3 FD_Non_JAK2.fcs  pt3       Non_JAK2  pt3              2
 4 JB_Non_JAK2.fcs  pt4       Non_JAK2  pt4              3
 5 JY_JAK2.fcs      pt5       JAK2      pt5              1
 6 KA_JAK2.fcs      pt6       JAK2      pt6              2
 7 LC_Non_JAK2.fcs  pt7       Non_JAK2  pt7              3
 8 LDD_Non_JAK2.fcs pt8       Non_JAK2  pt8              1
 9 PC_JAK2.fcs      pt9       JAK2      pt9              3
10 SBB_JAK2.fcs     pt10      JAK2      pt10             3
11 YE_Non_JAK2.fcs  pt11      Non_JAK2  pt11             2
```
### Panel metadata
The requirement for panel metadata is that it shall comprise the column names of the fcs files('fcs_colname'), protein names('antigen') and the status of markers(marker_class):'type' means phenotyping markers whereas 'state' indicates functional proteins. An example is shown below:  
```
# A tibble: 36 × 3                                                                                
   fcs_colname antigen      marker_class
   <chr>       <chr>        <chr>       
 1 Y89Di       CD45         type       
 2 Pr141Di     CD196_CCR6   type        
 3 Nd142Di     CD19         type        
 4 Nd143Di     CD127_IL-7Ra state        
 5 Nd144Di     CD38         type        
 6 Nd145Di     CD33         type        
 7 Nd146Di     IgD          type        
 8 Sm147Di     CD11c        type        
 9 Nd148Di     CD16         type        
10 Sm149Di     CD194_CCR4   state       
# ℹ 26 more rows
```
…
